[1] "/Users/Sunny/Desktop/hw-stat133/workout1/code"
[1] "/Users/Sunny/Desktop/School/Berkeley/Fall 2018/Stat133/warmup04"
# A tibble: 30 x 15
   team  experience salary points3 points2 points1 points off_rebounds
   <chr>      <dbl>  <dbl>   <int>   <int>   <int>  <int>        <int>
 1 ATL          100 9.34e7     660    2337    1453   8107          832
 2 BOS           63 9.19e7     985    2183    1536   8857          744
 3 BRK           70 7.62e7     777    2040    1444   7855          689
 4 CHI           59 9.25e7     565    2162    1330   7349          865
 5 CHO           63 8.85e7     808    2089    1497   8099          621
 6 CLE          145 1.27e8    1030    2148    1384   8770          735
 7 DAL           65 9.28e7     712    1754    1007   6651          521
 8 DEN           83 7.90e7     868    2351    1477   8783          872
 9 DET           55 1.03e8     631    2638    1140   8309          908
10 GSW          113 1.00e8     982    2545    1455   9491          770
# ... with 20 more rows, and 7 more variables: def_rebounds <int>,
#   assists <int>, steals <int>, blocks <int>, turnovers <int>,
#   fouls <int>, efficiency <dbl>
[1] 243432
# A tibble: 30 x 15
   team  experience salary points3 points2 points1 points off_rebounds
   <chr>      <dbl>  <dbl>   <int>   <int>   <int>  <int>        <int>
 1 ATL          100 9.34e7     660    2337    1453   8107          832
 2 BOS           63 9.19e7     985    2183    1536   8857          744
 3 BRK           70 7.62e7     777    2040    1444   7855          689
 4 CHI           59 9.25e7     565    2162    1330   7349          865
 5 CHO           63 8.85e7     808    2089    1497   8099          621
 6 CLE          145 1.27e8    1030    2148    1384   8770          735
 7 DAL           65 9.28e7     712    1754    1007   6651          521
 8 DEN           83 7.90e7     868    2351    1477   8783          872
 9 DET           55 1.03e8     631    2638    1140   8309          908
10 GSW          113 1.00e8     982    2545    1455   9491          770
# ... with 20 more rows, and 7 more variables: def_rebounds <int>,
#   assists <int>, steals <int>, blocks <int>, turnovers <int>,
#   fouls <int>, efficiency <dbl>
…
[397] 11.241218  2.090000  0.650000  0.031969  1.015696  4.228000
[403] 25.000000  0.543471  8.375000 22.116750  4.096950  0.063938
[409]  0.680937  0.119494  4.384490  0.543471  0.105498  0.874636
[415]  2.898000 17.100000  8.000000 12.500000  4.008882  3.517200
[421]  5.229454  8.000000  2.202240  0.082979  8.046500  5.200000
[427]  1.439880 13.333333  1.188840  1.315448 10.661286  3.551160
[433]  2.022240  6.006600  3.500000  7.643979  2.348783  0.635753
[439]  3.911380  5.960160  3.872520  3.800000 13.550000  3.046299
[445]  1.339680  2.240880  5.281680  7.600000  5.332800  0.137466
[451]  1.034956 12.500000  3.267120 18.000000  1.551659  5.443918
[457]  6.191000  1.050961 16.000000  1.733880  0.874636  4.823621
[463] 12.606250  0.543471  2.223600  4.276320  0.023069 14.000000
[469] 10.470000  0.102898  0.469841  4.000000  2.941440  0.465143
[475]  2.128920  0.918369 12.415000
# A tibble: 30 x 15
   team  experience salary points3 points2 points1 points off_rebounds
   <chr>      <dbl>  <dbl>   <int>   <int>   <int>  <int>        <int>
 1 ATL          100 9.34e7     660    2337    1453   8107          832
 2 BOS           63 9.19e7     985    2183    1536   8857          744
 3 BRK           70 7.62e7     777    2040    1444   7855          689
 4 CHI           59 9.25e7     565    2162    1330   7349          865
 5 CHO           63 8.85e7     808    2089    1497   8099          621
 6 CLE          145 1.27e8    1030    2148    1384   8770          735
 7 DAL           65 9.28e7     712    1754    1007   6651          521
 8 DEN           83 7.90e7     868    2351    1477   8783          872
 9 DET           55 1.03e8     631    2638    1140   8309          908
10 GSW          113 1.00e8     982    2545    1455   9491          770
# ... with 20 more rows, and 7 more variables: def_rebounds <int>,
#   assists <int>, steals <int>, blocks <int>, turnovers <int>,
#   fouls <int>, efficiency <dbl>
# A tibble: 30 x 15
   team  experience salary points3 points2 points1 points off_rebounds
   <chr>      <dbl>  <dbl>   <int>   <int>   <int>  <int>        <int>
 1 ATL          100 9.34e7     660    2337    1453   8107          832
 2 BOS           63 9.19e7     985    2183    1536   8857          744
 3 BRK           70 7.62e7     777    2040    1444   7855          689
 4 CHI           59 9.25e7     565    2162    1330   7349          865
 5 CHO           63 8.85e7     808    2089    1497   8099          621
 6 CLE          145 1.27e8    1030    2148    1384   8770          735
 7 DAL           65 9.28e7     712    1754    1007   6651          521
 8 DEN           83 7.90e7     868    2351    1477   8783          872
 9 DET           55 1.03e8     631    2638    1140   8309          908
10 GSW          113 1.00e8     982    2545    1455   9491          770
# ... with 20 more rows, and 7 more variables: def_rebounds <int>,
#   assists <int>, steals <int>, blocks <int>, turnovers <int>,
#   fouls <int>, efficiency <dbl>
# A tibble: 30 x 15
   team  experience salary points3 points2 points1 points off_rebounds
   <chr>      <dbl>  <dbl>   <int>   <int>   <int>  <int>        <int>
 1 ATL          100 9.34e7     660    2337    1453   8107          832
 2 BOS           63 9.19e7     985    2183    1536   8857          744
 3 BRK           70 7.62e7     777    2040    1444   7855          689
 4 CHI           59 9.25e7     565    2162    1330   7349          865
 5 CHO           63 8.85e7     808    2089    1497   8099          621
 6 CLE          145 1.27e8    1030    2148    1384   8770          735
 7 DAL           65 9.28e7     712    1754    1007   6651          521
 8 DEN           83 7.90e7     868    2351    1477   8783          872
 9 DET           55 1.03e8     631    2638    1140   8309          908
10 GSW          113 1.00e8     982    2545    1455   9491          770
# ... with 20 more rows, and 7 more variables: def_rebounds <int>,
#   assists <int>, steals <int>, blocks <int>, turnovers <int>,
#   fouls <int>, efficiency <dbl>
